%YAML 1.1
%TAG !u! tag:unity3d.com,2011:
--- !u!114 &11400000
MonoBehaviour:
  m_ObjectHideFlags: 0
  m_CorrespondingSourceObject: {fileID: 0}
  m_PrefabInternal: {fileID: 0}
  m_GameObject: {fileID: 0}
  m_Enabled: 1
  m_EditorHideFlags: 0
  m_Script: {fileID: 11500000, guid: 8fd034f1c758a4a46bd38a2d52991332, type: 3}
  m_Name: Pistol
  m_EditorClassIdentifier: 
  ShootingInterval: 0
  Damage: 5
  PushBackStrength: 1
  BulletPrefab: {fileID: 0}
  BulletSprite: {fileID: 0}
  BulletTint: {r: 0, g: 0, b: 0, a: 0}
  BulletVelocity: 10
  ShotAudioClips:
  - {fileID: 8300000, guid: 0043c40759a8ed94899515604139e010, type: 3}
  EquipAudioClip: {fileID: 0}
