%YAML 1.1
%TAG !u! tag:unity3d.com,2011:
--- !u!114 &11400000
MonoBehaviour:
  m_ObjectHideFlags: 0
  m_CorrespondingSourceObject: {fileID: 0}
  m_PrefabInternal: {fileID: 0}
  m_GameObject: {fileID: 0}
  m_Enabled: 1
  m_EditorHideFlags: 0
  m_Script: {fileID: 11500000, guid: d430d707cbcd2524cb219b31616bb36d, type: 3}
  m_Name: EnemyChaser
  m_EditorClassIdentifier: 
  targetUpdateInterval: 1
  stoppingDistance: 4
  accelerationSpeed: 4
  maxMovementSpeed: 6
  slowDownSpeed: 5
  rotationSpeed: 30
  _dropsWithoutShield:
  - Pickup: {fileID: 11400000, guid: e44142b53f4a9f74daf0c128c07a5dc5, type: 2}
    Chance: 0.1
  _dropsWithShield:
  - Pickup: {fileID: 11400000, guid: 171c1d18a1ef183488ed54a43ec92e1e, type: 2}
    Chance: 0.75
